# Práctica 2 - Log

* 1. Verificar el contenido de la primera versión de "Ïndice.txt" *

# 1) Log después de recuperar "Indice.txt"

$ git status
On branch master
Your branch is up-to-date with 'origin/master'.

Changes to be committed:
  (use "git reset HEAD <file>..." to unstage)

        modified:   Indice.txt


# 2) Ver el contenido del archivo (Cambios revertidos)

$ cat Indice.txt
1. Un perro
2. La promosió
3. Grandes respuestas


# 3) Ver a qué commit está vinculado el HEAD

$ git log
commit 2078951e74ef22f91d872148538e61d786614c3c (HEAD -> master, origin/master)
Author: kivaj <javiersantanagodoy@gmail.com>
Date:   Thu Sep 28 10:25:11 2017 +0200

    Añadido log y captura del primer commit

# 4) Recuperamos el contenido original

$ git checkout HEAD Indice.txt
$ cat Indice.txt
1. Un perro
2. La promosi▒
3. Grandes respuestas
4. No nos traig▒is esas cosas


* 2. Repetimos con el archivo Capitulo-1.txt *

# 5) Listamos el archivo Capitulo1.txt

$ cat Capitulo-1.txt
Un perro
Jibiri, jibiri

# 6) Recuperamos el contenido original

$ cat Capitulo-1.txt
Un perro


* 3. Recuperar una versión de un archivo y guardarla como actual *

# 7) Listar el cap1.txt

$ cat Capitulo-1.txt
Un perro
Jibiri, jibiri

# 8) Listar contenido actual

$ cat Capitulo-1.txt
Un perro

* 4. Commits atómicos *

# 9) Listar el repo en una línea por commit 

$ git log --oneline --decorate
1a232f6 (HEAD -> master) UPDATE Capitulo-1 Primera versión
2078951 (origin/master) Añadido log y captura del primer commit
cf9fa81 Modificado Cap1
86f3f7b Actualizado Indice
44a0e8a Añadido Cap4
beb6ac4 Subido Cap3
f92c3be Subido Cap2
5c0ec07 Subido Cap1
ddd4c65 Commit inicial de mi libro

# 10) Listar de nuevos los commits

$ git log --oneline --decorate
f9e7a2b (HEAD -> master) UPDATE Capitulo-3.txt
6e99735 UPDATE Capitulo-2.txt
1a232f6 UPDATE Capitulo-1 Primera versión
2078951 (origin/master) Añadido log y captura del primer commit
cf9fa81 Modificado Cap1
86f3f7b Actualizado Indice
44a0e8a Añadido Cap4
beb6ac4 Subido Cap3
f92c3be Subido Cap2
5c0ec07 Subido Cap1
ddd4c65 Commit inicial de mi libro


* 5. Ver estado archivos antes del commit del punto 3 *

# 11) Volvemos al HEAD-3

$ git checkout HEAD~3
Note: checking out 'HEAD~3'.

You are in 'detached HEAD' state. You can look around, make experimental
changes and commit them, and you can discard any commits you make in this
state without impacting any branches by performing another checkout.

If you want to create a new branch to retain commits you create, you may
do so (now or later) by using -b with the checkout command again. Example:

  git checkout -b <new-branch-name>

HEAD is now at 2078951... Añadido log y captura del primer commit

# 12) Consulta el staging area

$ git status
HEAD detached at 2078951
nothing to commit, working tree clean
